<svg xmlns="http://www.w3.org/2000/svg" width="150" height="121" viewBox="0 0 150 121">
    <g fill="none" fill-rule="evenodd">
        <path stroke="#E9E9E9" stroke-linecap="round" stroke-linejoin="round" stroke-width="4" d="M2 118.034h146"/>
        <path fill="#704356" d="M66.718 117.995l-46.413-6.632a3.861 3.861 0 0 1-3.321-3.826V17.325a3.869 3.869 0 0 1 3.058-3.786L66.455 2.086a3.867 3.867 0 0 1 4.677 3.785V114.17a3.867 3.867 0 0 1-4.414 3.826"/>
        <path fill="#F02867" d="M109.91 17.477H84.754v92.826h25.154a7.637 7.637 0 0 0 7.637-7.636V25.113a7.637 7.637 0 0 0-7.637-7.636"/>
        <path stroke="#E9E9E9" stroke-linecap="round" stroke-linejoin="round" stroke-width="4" d="M117.546 94.832v7.735a7.736 7.736 0 0 1-7.736 7.736H86.604M86.604 17.477h23.206a7.735 7.735 0 0 1 7.736 7.735v7.736M66.718 117.995l-46.413-6.632a3.861 3.861 0 0 1-3.321-3.826V17.325a3.869 3.869 0 0 1 3.058-3.786L66.455 2.086a3.867 3.867 0 0 1 4.677 3.785V114.17a3.867 3.867 0 0 1-4.414 3.826z"/>
        <path stroke="#F02867" stroke-linecap="round" stroke-linejoin="round" stroke-width="4" d="M34.353 104.735l-6.312-.902a3.863 3.863 0 0 1-3.322-3.827v-9.199"/>
        <path stroke="#E9E9E9" stroke-linecap="round" stroke-linejoin="round" stroke-width="4" d="M105.942 48.413L90.47 63.885h42.546M105.942 79.356L90.47 63.885M53.728 58.088A1.934 1.934 0 1 0 55.662 60a1.928 1.928 0 0 0-1.934-1.934"/>
    </g>
</svg>
