<?xml version="1.0" encoding="utf-8"?>
<!-- Generator: Adobe Illustrator 21.0.0, SVG Export Plug-In . SVG Version: 6.00 Build 0)  -->
<svg version="1.1" id="Layer_1" xmlns="http://www.w3.org/2000/svg" xmlns:xlink="http://www.w3.org/1999/xlink" x="0px" y="0px"
	 viewBox="0 0 925 768" style="enable-background:new 0 0 925 768;" xml:space="preserve">
<style type="text/css">
	.st0{fill:#FFFFFF;}
	.st1{fill:#EB3A64;}
</style>
<g>
	<path class="st0" d="M432.6,425.1c-77.2,0-154.4,0-231.6,0c-3.3,0-6.5,0-9.8-0.2c-21.4-1.2-35.2-15.5-35.2-37.1
		c-0.1-61.9,0-123.8,0-185.8c0-52.4-0.2-104.8,0.1-157.2c0.2-22.7,15.1-36.6,37.9-36.6c159.9,0,319.9,0,479.8,0
		c22,0,37.1,14.8,37.1,36.7c0.1,114.3,0.1,228.6,0,342.9c0,23.1-15,37.1-39.8,37.1c-55.2,0.1-110.3,0-165.5,0
		C481.3,425.1,457,425.1,432.6,425.1C432.6,425.1,432.6,425.1,432.6,425.1z M433.4,60c-14.3,0-28.6,0-42.9,0c-48.6,0-97.3,0-145.9,0
		c-11,0-20.9,2.2-27.7,12c-4.6,6.6-5.2,13.9-5.2,21.5c0.1,82.2,0.1,164.5,0.1,246.7c0,2.3,0,4.5,0.1,6.8
		c1.1,14.4,11.2,24.7,25.6,25.8c6.5,0.5,13,0.6,19.5,0.2c5.7-0.3,9.5,1.4,13.3,6.1c31.6,38.3,85.2,38.2,116.9,0.2
		c7.4-8.9,22.6-8.7,30,0.4c29.9,37,86.3,37.2,116,0.1c3.9-4.8,7.7-6.7,13.8-6.8c6.1-0.1,9.9,1.8,13.8,6.5
		c20.5,24.4,46.9,33.4,77.5,25.3c29.7-7.8,48.4-28.2,54-58.5c5.6-30.6-5-55.9-30.1-74.3c-5.6-4.1-7.4-8.1-7.4-14.7
		c0.2-55.7,0.1-111.3,0-167c0-14.4-6.2-23.9-18-28.4c-5.3-2-10.8-1.9-16.3-1.9C558.3,60,495.8,60,433.4,60z"/>
	<circle class="st0" cx="328.9" cy="333.2" r="63.5"/>
	<circle class="st0" cx="474.5" cy="333.2" r="63.5"/>
	<circle class="st1" cx="620" cy="333.2" r="63.5"/>
	<path class="st0" d="M325.1,583.1c0.3-19.1,4.2-36.1,5.8-53.3c0.1-1.5,0.4-2.9,0.5-4.4c1.1-13.7-2-17.5-15.8-15.2
		c-56.1,9.4-108.9,28-156.9,59c-4.9,3.1-4.2,7-3.8,11.4c3.1,32.8,4.8,65.6,0.8,98.4c-2,17-5.9,33.5-13.9,48.8
		c-13.1,25.1-35.4,35.9-62,30.2c-24.7-5.4-40.6-25.3-41.8-53c-1.3-30.7,10.4-57.3,26.8-82.2c14.1-21.5,31.6-40.2,51.9-55.9
		c6.8-5.2,8.4-10.5,7.1-18.6C111.5,468.6,90.8,391.1,65,314.8C49.5,269,31.9,223.9,12.6,179.6c-2.7-6.3-4.3-12.2,0.7-18
		c7.2-8.2,18.3-5.4,23.5,6.3c15.4,34.8,29.5,70.3,42.4,106.1c30.5,84.9,55.3,171.3,69.5,260.5c1.2,7.7,3.9,6.5,9,3.6
		c45.8-26.7,95.3-43.6,147.2-53.7c0.9-0.2,1.7-0.4,2.6-0.5c36.5-6.1,55,12,50.3,48.8c-2.5,19.4-7.2,38.7-5.1,58.6
		c0.3,2.6,0.6,5.3,1.3,7.8c4.4,16.2,11.3,20.6,27.6,17.1c30.4-6.4,58.5-19.1,86.6-31.6c69.7-30.9,137.8-65.2,207.8-95.4
		c48.8-21.1,98.5-39.6,151.1-49c19.3-3.5,38.8-6.2,58.5-7.1c3.5-0.2,7-0.3,10.6-0.2c11.1,0.4,17,5.3,16.8,13.7
		c-0.2,8.2-5.7,12.8-16.4,13.3c-8.5,0.5-17,0.6-25.5,1.4c-60,5.3-116.4,23.8-171.4,47.1c-75.6,32.1-149.2,68.6-224,102.3
		c-26.5,11.9-53.4,22.7-81.5,30.5c-43.8,12.2-63.3-10.8-68.6-48.3C325.1,589,325.2,585.1,325.1,583.1z M127.9,593.5
		c-30.1,25.8-54.6,54.9-62.1,95.1c-1.2,6.7-1.4,13.4-0.2,20.1c2.3,13.1,8.6,20.5,19.8,22.8c13.6,2.9,22.8-0.8,30.3-12.1
		c3.6-5.4,6.2-11.3,7.9-17.6C133.4,666.3,131.7,630.2,127.9,593.5z"/>
	<path class="st0" d="M461.3,687.2c-0.1,7.6-5.2,12.3-15.3,13.9c-24.1,3.7-47.6,9.9-70.7,17.8c-25.6,8.8-50,20-73,34.5
		c-2.7,1.7-5.5,3.4-8.4,4.7c-6.7,2.9-12.3,0.8-16.1-4.9c-3.9-5.8-3.1-11.9,2-16.7c3-2.8,6.6-4.9,10-7.1c47.4-29,99-46.5,153.7-55.2
		C453.9,672.6,461.4,678.3,461.3,687.2z"/>
</g>
</svg>
